tex/src/python-graph/spi-osciloscope-data/k26-spi-clk-10-mhz-data-0x10000001-detail-start.csv

Model,RTH1004
SerialNumber,104117
Firmware Version,'1.70.3.2'

Acquisition Time Stamp,2023-04-12 15:05:01.141602729,2023-04-12 15:05:01.141602729
Waveform Type,ANALOG,
Acquisition Mode,SAMPLE,
Horizontal Unit,s,
Horizontal Scale,5e-08,
Horizontal Position,2e-07,
Reference Point,50 %,
Sample Interval,4e-10,
Record Length,1250,
Probe Setting,'10:1','10:1'
Vertical Unit,V,V
Vertical Scale,2,2
Vertical Position,-3,1
Vertical Offset,0,0
History Index,0,0
History Time Stamp,0.000000000000,0.000000000000
,,
TIME,CH1,CH3
-5e-08,-0.0862745,0.227451
-4.96e-08,-0.0862745,0.227451
-4.92e-08,-0.0862745,0.227451
-4.88e-08,-0.0862745,0.196078
-4.84e-08,-0.0862745,0.196078
-4.8e-08,-0.0862745,0.196078
-4.76e-08,-0.0862745,0.196078
-4.72e-08,-0.0862745,0.196078
-4.68e-08,-0.0862745,0.196078
-4.64e-08,-0.0862745,0.196078
-4.6e-08,-0.054902,0.196078
-4.56e-08,-0.054902,0.164706
-4.52e-08,-0.054902,0.164706
-4.48e-08,-0.0862745,0.164706
-4.44e-08,-0.0862745,0.164706
-4.4e-08,-0.0862745,0.164706
-4.36e-08,-0.0862745,0.164706
-4.32e-08,-0.0862745,0.164706
-4.28e-08,-0.0862745,0.164706
-4.24e-08,-0.0862745,0.164706
-4.2e-08,-0.0862745,0.164706
-4.16e-08,-0.0862745,0.164706
-4.12e-08,-0.054902,0.164706
-4.08e-08,-0.054902,0.164706
-4.04e-08,-0.054902,0.164706
-4e-08,-0.054902,0.164706
-3.96e-08,-0.054902,0.196078
-3.92e-08,-0.054902,0.196078
-3.88e-08,-0.054902,0.196078
-3.84e-08,-0.054902,0.196078
-3.8e-08,-0.054902,0.196078
-3.76e-08,-0.054902,0.196078
-3.72e-08,-0.054902,0.196078
-3.68e-08,-0.054902,0.196078
-3.64e-08,-0.054902,0.196078
-3.6e-08,-0.054902,0.196078
-3.56e-08,-0.054902,0.196078
-3.52e-08,-0.054902,0.196078
-3.48e-08,-0.054902,0.196078
-3.44e-08,-0.054902,0.196078
-3.4e-08,-0.054902,0.164706
-3.36e-08,-0.054902,0.164706
-3.32e-08,-0.054902,0.164706
-3.28e-08,-0.054902,0.164706
-3.24e-08,-0.054902,0.164706
-3.2e-08,-0.054902,0.164706
-3.16e-08,-0.054902,0.164706
-3.12e-08,-0.054902,0.164706
-3.08e-08,-0.054902,0.164706
-3.04e-08,-0.0862745,0.164706
-3e-08,-0.0862745,0.164706
-2.96e-08,-0.0862745,0.164706
-2.92e-08,-0.0862745,0.164706
-2.88e-08,-0.0862745,0.164706
-2.84e-08,-0.0862745,0.164706
-2.8e-08,-0.0862745,0.164706
-2.76e-08,-0.0862745,0.164706
-2.72e-08,-0.0862745,0.164706
-2.68e-08,-0.0862745,0.164706
-2.64e-08,-0.0862745,0.164706
-2.6e-08,-0.0862745,0.164706
-2.56e-08,-0.0862745,0.164706
-2.52e-08,-0.0862745,0.164706
-2.48e-08,-0.0862745,0.133333
-2.44e-08,-0.0862745,0.133333
-2.4e-08,-0.0862745,0.133333
-2.36e-08,-0.0862745,0.133333
-2.32e-08,-0.0862745,0.133333
-2.28e-08,-0.0862745,0.133333
-2.24e-08,-0.0862745,0.133333
-2.2e-08,-0.0862745,0.133333
-2.16e-08,-0.0862745,0.133333
-2.12e-08,-0.0862745,0.133333
-2.08e-08,-0.0862745,0.133333
-2.04e-08,-0.0862745,0.133333
-2e-08,-0.0862745,0.164706
-1.96e-08,-0.0862745,0.164706
-1.92e-08,-0.0862745,0.164706
-1.88e-08,-0.0862745,0.164706
-1.84e-08,-0.117647,0.164706
-1.8e-08,-0.117647,0.164706
-1.76e-08,-0.117647,0.164706
-1.72e-08,-0.0862745,0.196078
-1.68e-08,-0.0862745,0.196078
-1.64e-08,-0.0862745,0.196078
-1.6e-08,-0.0862745,0.196078
-1.56e-08,-0.0862745,0.196078
-1.52e-08,-0.0862745,0.196078
-1.48e-08,-0.0862745,0.196078
-1.44e-08,-0.0862745,0.164706
-1.4e-08,-0.054902,0.164706
-1.36e-08,-0.0862745,0.164706
-1.32e-08,-0.0862745,0.164706
-1.28e-08,-0.0862745,0.164706
-1.24e-08,-0.0862745,0.164706
-1.2e-08,-0.0862745,0.164706
-1.16e-08,-0.0862745,0.164706
-1.12e-08,-0.0862745,0.164706
-1.08e-08,-0.0862745,0.164706
-1.04e-08,-0.0862745,0.164706
-1e-08,-0.0862745,0.164706
-9.6e-09,-0.0862745,0.164706
-9.2e-09,-0.0862745,0.164706
-8.8e-09,-0.0862745,0.164706
-8.4e-09,-0.054902,0.164706
-8e-09,-0.054902,0.164706
-7.6e-09,-0.054902,0.164706
-7.2e-09,-0.054902,0.196078
-6.8e-09,-0.054902,0.196078
-6.4e-09,-0.054902,0.196078
-6e-09,-0.054902,0.196078
-5.6e-09,-0.0862745,0.196078
-5.2e-09,-0.0862745,0.196078
-4.8e-09,-0.0862745,0.196078
-4.4e-09,-0.0862745,0.196078
-4e-09,-0.0862745,0.196078
-3.6e-09,-0.0862745,0.196078
-3.2e-09,-0.0862745,0.227451
-2.8e-09,-0.0862745,0.258824
-2.4e-09,-0.0862745,0.290196
-2e-09,-0.117647,0.321569
-1.6e-09,-0.117647,0.415686
-1.2e-09,-0.117647,0.478431
-8e-10,-0.14902,0.603922
-4e-10,-0.14902,0.729412
0,-0.180392,0.886275
4e-10,-0.180392,1.04314
8e-10,-0.211765,1.23137
1.2e-09,-0.211765,1.41961
1.6e-09,-0.243137,1.63922
2e-09,-0.243137,1.85882
2.4e-09,-0.243137,2.04706
2.8e-09,-0.243137,2.26667
3.2e-09,-0.243137,2.4549
3.6e-09,-0.243137,2.64314
4e-09,-0.243137,2.83137
4.4e-09,-0.243137,3.01961
4.8e-09,-0.211765,3.17647
5.2e-09,-0.211765,3.36471
5.6e-09,-0.211765,3.4902
6e-09,-0.180392,3.64706
6.4e-09,-0.180392,3.77255
6.8e-09,-0.180392,3.89804
7.2e-09,-0.180392,3.99216
7.6e-09,-0.180392,4.08627
8e-09,-0.14902,4.18039
8.4e-09,-0.14902,4.24314
8.8e-09,-0.14902,4.30588
9.2e-09,-0.117647,4.33725
9.6e-09,-0.117647,4.36863
1e-08,-0.0862745,4.4
1.04e-08,-0.0862745,4.4
1.08e-08,-0.054902,4.43137
1.12e-08,-0.0235294,4.43137
1.16e-08,0.00784314,4.4
1.2e-08,0.00784314,4.4
1.24e-08,0.0392157,4.36863
1.28e-08,0.0392157,4.33725
1.32e-08,0.0705882,4.27451
1.36e-08,0.0705882,4.24314
1.4e-08,0.101961,4.18039
1.44e-08,0.101961,4.11765
1.48e-08,0.101961,4.0549
1.52e-08,0.101961,3.96078
1.56e-08,0.133333,3.89804
1.6e-08,0.133333,3.80392
1.64e-08,0.133333,3.7098
1.68e-08,0.133333,3.61569
1.72e-08,0.164706,3.55294
1.76e-08,0.164706,3.45882
1.8e-08,0.196078,3.39608
1.84e-08,0.196078,3.33333
1.88e-08,0.196078,3.27059
1.92e-08,0.164706,3.23922
1.96e-08,0.164706,3.20784
2e-08,0.164706,3.17647
2.04e-08,0.133333,3.1451
2.08e-08,0.133333,3.1451
2.12e-08,0.101961,3.1451
2.16e-08,0.0705882,3.1451
2.2e-08,0.0392157,3.1451
2.24e-08,0.00784314,3.17647
2.28e-08,-0.0235294,3.17647
2.32e-08,-0.054902,3.20784
2.36e-08,-0.054902,3.23922
2.4e-08,-0.0862745,3.23922
2.44e-08,-0.117647,3.27059
2.48e-08,-0.14902,3.30196
2.52e-08,-0.14902,3.33333
2.56e-08,-0.180392,3.36471
2.6e-08,-0.211765,3.39608
2.64e-08,-0.211765,3.42745
2.68e-08,-0.211765,3.45882
2.72e-08,-0.211765,3.4902
2.76e-08,-0.243137,3.52157
2.8e-08,-0.243137,3.55294
2.84e-08,-0.243137,3.58431
2.88e-08,-0.243137,3.58431
2.92e-08,-0.243137,3.61569
2.96e-08,-0.243137,3.64706
3e-08,-0.211765,3.64706
3.04e-08,-0.211765,3.67843
3.08e-08,-0.211765,3.67843
3.12e-08,-0.211765,3.7098
3.16e-08,-0.180392,3.7098
3.2e-08,-0.180392,3.7098
3.24e-08,-0.14902,3.7098
3.28e-08,-0.14902,3.7098
3.32e-08,-0.14902,3.74118
3.36e-08,-0.117647,3.7098
3.4e-08,-0.117647,3.7098
3.44e-08,-0.117647,3.7098
3.48e-08,-0.0862745,3.7098
3.52e-08,-0.0862745,3.67843
3.56e-08,-0.0862745,3.67843
3.6e-08,-0.054902,3.64706
3.64e-08,-0.054902,3.64706
3.68e-08,-0.054902,3.61569
3.72e-08,-0.054902,3.61569
3.76e-08,-0.054902,3.61569
3.8e-08,-0.0235294,3.58431
3.84e-08,-0.0235294,3.58431
3.88e-08,-0.0235294,3.58431
3.92e-08,-0.0235294,3.58431
3.96e-08,-0.0235294,3.58431
4e-08,-0.0235294,3.58431
4.04e-08,0.00784314,3.58431
4.08e-08,0.00784314,3.58431
4.12e-08,0.00784314,3.58431
4.16e-08,0.00784314,3.55294
4.2e-08,0.00784314,3.55294
4.24e-08,0.00784314,3.55294
4.28e-08,0.0392157,3.55294
4.32e-08,0.00784314,3.55294
4.36e-08,0.00784314,3.55294
4.4e-08,0.00784314,3.55294
4.44e-08,0.00784314,3.55294
4.48e-08,-0.0235294,3.55294
4.52e-08,-0.0235294,3.55294
4.56e-08,-0.054902,3.55294
4.6e-08,-0.054902,3.52157
4.64e-08,-0.054902,3.52157
4.68e-08,-0.0862745,3.4902
4.72e-08,-0.0862745,3.45882
4.76e-08,-0.0862745,3.42745
4.8e-08,-0.0862745,3.33333
4.84e-08,-0.0862745,3.27059
4.88e-08,-0.0862745,3.17647
4.92e-08,-0.054902,3.08235
4.96e-08,-0.054902,2.92549
5e-08,-0.054902,2.76863
5.04e-08,-0.0235294,2.58039
5.08e-08,-0.0235294,2.39216
5.12e-08,-0.0235294,2.20392
5.16e-08,-0.0235294,1.98431
5.2e-08,-0.0235294,1.76471
5.24e-08,0.00784314,1.5451
5.28e-08,-0.0235294,1.32549
5.32e-08,-0.0235294,1.10588
5.36e-08,-0.0235294,0.917647
5.4e-08,-0.0235294,0.698039
5.44e-08,-0.0235294,0.509804
5.48e-08,-0.054902,0.352941
5.52e-08,-0.054902,0.196078
5.56e-08,-0.054902,0.0392157
5.6e-08,-0.054902,-0.117647
5.64e-08,-0.054902,-0.243137
5.68e-08,-0.0862745,-0.337255
5.72e-08,-0.0862745,-0.462745
5.76e-08,-0.0862745,-0.52549
5.8e-08,-0.0862745,-0.619608
5.84e-08,-0.0862745,-0.682353
5.88e-08,-0.0862745,-0.745098
5.92e-08,-0.117647,-0.776471
5.96e-08,-0.117647,-0.807843
6e-08,-0.117647,-0.807843
6.04e-08,-0.14902,-0.839216
6.08e-08,-0.14902,-0.807843
6.12e-08,-0.180392,-0.807843
6.16e-08,-0.180392,-0.776471
6.2e-08,-0.211765,-0.745098
6.24e-08,-0.211765,-0.713725
6.28e-08,-0.243137,-0.682353
6.32e-08,-0.243137,-0.619608
6.36e-08,-0.27451,-0.556863
6.4e-08,-0.27451,-0.494118
6.44e-08,-0.27451,-0.4
6.48e-08,-0.27451,-0.337255
6.52e-08,-0.27451,-0.243137
6.56e-08,-0.27451,-0.14902
6.6e-08,-0.27451,-0.054902
6.64e-08,-0.27451,0.0392157
6.68e-08,-0.27451,0.133333
6.72e-08,-0.27451,0.227451
6.76e-08,-0.27451,0.321569
6.8e-08,-0.27451,0.384314
6.84e-08,-0.27451,0.447059
6.88e-08,-0.27451,0.509804
6.92e-08,-0.243137,0.541176
6.96e-08,-0.243137,0.572549
7e-08,-0.243137,0.603922
7.04e-08,-0.211765,0.603922
7.08e-08,-0.180392,0.635294
7.12e-08,-0.180392,0.635294
7.16e-08,-0.14902,0.635294
7.2e-08,-0.117647,0.603922
7.24e-08,-0.0862745,0.603922
7.28e-08,-0.0862745,0.572549
7.32e-08,-0.054902,0.541176
7.36e-08,-0.0235294,0.509804
7.4e-08,0.00784314,0.478431
7.44e-08,0.0392157,0.447059
7.48e-08,0.0705882,0.415686
7.52e-08,0.101961,0.384314
7.56e-08,0.101961,0.352941
7.6e-08,0.133333,0.321569
7.64e-08,0.133333,0.290196
7.68e-08,0.133333,0.227451
7.72e-08,0.133333,0.196078
7.76e-08,0.133333,0.164706
7.8e-08,0.133333,0.164706
7.84e-08,0.133333,0.133333
7.88e-08,0.101961,0.101961
7.92e-08,0.101961,0.101961
7.96e-08,0.101961,0.0705882
8e-08,0.0705882,0.0705882
8.04e-08,0.0705882,0.0392157
8.08e-08,0.0392157,0.0392157
8.12e-08,0.0392157,0.00784314
8.16e-08,0.00784314,0.00784314
8.2e-08,0.00784314,0.00784314
8.24e-08,-0.0235294,-0.0235294
8.28e-08,-0.0235294,-0.0235294
8.32e-08,-0.054902,-0.0235294
8.36e-08,-0.054902,-0.0235294
8.4e-08,-0.0862745,-0.0235294
8.44e-08,-0.0862745,-0.0235294
8.48e-08,-0.117647,-0.0235294
8.52e-08,-0.117647,-0.0235294
8.56e-08,-0.14902,-0.0235294
8.6e-08,-0.14902,0.00784314
8.64e-08,-0.180392,0.00784314
8.68e-08,-0.180392,0.00784314
8.72e-08,-0.180392,0.0392157
8.76e-08,-0.180392,0.0392157
8.8e-08,-0.180392,0.0392157
8.84e-08,-0.180392,0.0705882
8.88e-08,-0.211765,0.0705882
8.92e-08,-0.211765,0.0705882
8.96e-08,-0.211765,0.0705882
9e-08,-0.211765,0.101961
9.04e-08,-0.211765,0.101961
9.08e-08,-0.211765,0.101961
9.12e-08,-0.211765,0.133333
9.16e-08,-0.211765,0.133333
9.2e-08,-0.211765,0.133333
9.24e-08,-0.211765,0.133333
9.28e-08,-0.211765,0.164706
9.32e-08,-0.211765,0.164706
9.36e-08,-0.211765,0.164706
9.4e-08,-0.180392,0.164706
9.44e-08,-0.180392,0.196078
9.48e-08,-0.14902,0.196078
9.52e-08,-0.117647,0.196078
9.56e-08,-0.117647,0.196078
9.6e-08,-0.0862745,0.227451
9.64e-08,-0.054902,0.227451
9.68e-08,-0.054902,0.258824
9.72e-08,-0.054902,0.258824
9.76e-08,-0.054902,0.321569
9.8e-08,-0.0235294,0.384314
9.84e-08,-0.0235294,0.447059
9.88e-08,-0.0235294,0.541176
9.92e-08,-0.054902,0.666667
9.96e-08,-0.054902,0.792157
1e-07,-0.054902,0.94902
1.004e-07,-0.054902,1.10588
1.008e-07,-0.0862745,1.32549
1.012e-07,-0.0862745,1.51373
1.016e-07,-0.0862745,1.73333
1.02e-07,-0.0862745,1.95294
1.024e-07,-0.0862745,2.17255
1.028e-07,-0.117647,2.39216
1.032e-07,-0.117647,2.58039
1.036e-07,-0.117647,2.8
1.04e-07,-0.117647,2.98824
1.044e-07,-0.117647,3.17647
1.048e-07,-0.117647,3.33333
1.052e-07,-0.117647,3.52157
1.056e-07,-0.117647,3.64706
1.06e-07,-0.117647,3.80392
1.064e-07,-0.117647,3.92941
1.068e-07,-0.117647,4.0549
1.072e-07,-0.117647,4.14902
1.076e-07,-0.117647,4.24314
1.08e-07,-0.0862745,4.30588
1.084e-07,-0.0862745,4.36863
1.088e-07,-0.0862745,4.43137
1.092e-07,-0.0862745,4.49412
1.096e-07,-0.0862745,4.49412
1.1e-07,-0.0862745,4.52549
1.104e-07,-0.0862745,4.55686
1.108e-07,-0.054902,4.55686
1.112e-07,-0.054902,4.52549
1.116e-07,-0.0235294,4.52549
1.12e-07,-0.0235294,4.49412
1.124e-07,-0.0235294,4.46275
1.128e-07,0.00784314,4.4
1.132e-07,0.00784314,4.36863
1.136e-07,0.00784314,4.27451
1.14e-07,0.0392157,4.21176
1.144e-07,0.0392157,4.14902
1.148e-07,0.0392157,4.0549
1.152e-07,0.0392157,3.96078
1.156e-07,0.0392157,3.86667
1.16e-07,0.0392157,3.77255
1.164e-07,0.0392157,3.67843
1.168e-07,0.0392157,3.58431
1.172e-07,0.0705882,3.4902
1.176e-07,0.0705882,3.39608
1.18e-07,0.0705882,3.30196
1.184e-07,0.0705882,3.23922
1.188e-07,0.0705882,3.17647
1.192e-07,0.0705882,3.1451
1.196e-07,0.0705882,3.11373
1.2e-07,0.0705882,3.08235
1.204e-07,0.0392157,3.08235
1.208e-07,0.0392157,3.08235
1.212e-07,0.00784314,3.08235
1.216e-07,0.00784314,3.08235
1.22e-07,-0.0235294,3.08235
1.224e-07,-0.054902,3.11373
1.228e-07,-0.0862745,3.1451
1.232e-07,-0.117647,3.17647
1.236e-07,-0.14902,3.20784
1.24e-07,-0.14902,3.23922
1.244e-07,-0.180392,3.27059
1.248e-07,-0.180392,3.30196
1.252e-07,-0.211765,3.33333
1.256e-07,-0.211765,3.36471
1.26e-07,-0.243137,3.39608
1.264e-07,-0.243137,3.42745
1.268e-07,-0.243137,3.45882
1.272e-07,-0.243137,3.4902
1.276e-07,-0.243137,3.52157
1.28e-07,-0.243137,3.55294
1.284e-07,-0.211765,3.55294
1.288e-07,-0.211765,3.58431
1.292e-07,-0.211765,3.61569
1.296e-07,-0.211765,3.61569
1.3e-07,-0.211765,3.64706
1.304e-07,-0.211765,3.64706
1.308e-07,-0.180392,3.64706
1.312e-07,-0.180392,3.67843
1.316e-07,-0.14902,3.67843
1.32e-07,-0.14902,3.67843
1.324e-07,-0.14902,3.7098
1.328e-07,-0.117647,3.7098
1.332e-07,-0.0862745,3.7098
1.336e-07,-0.0862745,3.7098
1.34e-07,-0.054902,3.7098
1.344e-07,-0.054902,3.7098
1.348e-07,-0.0235294,3.7098
1.352e-07,-0.0235294,3.67843
1.356e-07,0.00784314,3.67843
1.36e-07,0.00784314,3.67843
1.364e-07,0.00784314,3.67843
1.368e-07,0.0392157,3.67843
1.372e-07,0.0392157,3.64706
1.376e-07,0.0392157,3.64706
1.38e-07,0.0705882,3.64706
1.384e-07,0.0705882,3.61569
1.388e-07,0.0705882,3.61569
1.392e-07,0.0705882,3.61569
1.396e-07,0.101961,3.61569
1.4e-07,0.101961,3.58431
1.404e-07,0.101961,3.58431
1.408e-07,0.101961,3.58431
1.412e-07,0.101961,3.55294
1.416e-07,0.0705882,3.55294
1.42e-07,0.0705882,3.55294
1.424e-07,0.0705882,3.55294
1.428e-07,0.0705882,3.52157
1.432e-07,0.0392157,3.52157
1.436e-07,0.0392157,3.52157
1.44e-07,0.00784314,3.4902
1.444e-07,0.00784314,3.4902
1.448e-07,-0.0235294,3.4902
1.452e-07,-0.0235294,3.4902
1.456e-07,-0.0235294,3.45882
1.46e-07,-0.054902,3.45882
1.464e-07,-0.054902,3.42745
1.468e-07,-0.054902,3.42745
1.472e-07,-0.0862745,3.39608
1.476e-07,-0.0862745,3.33333
1.48e-07,-0.0862745,3.27059
1.484e-07,-0.0862745,3.20784
1.488e-07,-0.0862745,3.11373
1.492e-07,-0.0862745,3.01961
1.496e-07,-0.0862745,2.86275
1.5e-07,-0.0862745,2.73725
1.504e-07,-0.054902,2.54902
1.508e-07,-0.054902,2.36078
1.512e-07,-0.054902,2.14118
1.516e-07,-0.054902,1.92157
1.52e-07,-0.054902,1.70196
1.524e-07,-0.0235294,1.51373
1.528e-07,-0.0235294,1.29412
1.532e-07,-0.0235294,1.07451
1.536e-07,-0.0235294,0.886275
1.54e-07,-0.0235294,0.666667
1.544e-07,-0.054902,0.509804
1.548e-07,-0.054902,0.321569
1.552e-07,-0.054902,0.164706
1.556e-07,-0.054902,0.00784314
1.56e-07,-0.054902,-0.117647
1.564e-07,-0.054902,-0.243137
1.568e-07,-0.054902,-0.337255
1.572e-07,-0.054902,-0.462745
1.576e-07,-0.054902,-0.52549
1.58e-07,-0.054902,-0.619608
1.584e-07,-0.0862745,-0.682353
1.588e-07,-0.0862745,-0.713725
1.592e-07,-0.0862745,-0.745098
1.596e-07,-0.0862745,-0.776471
1.6e-07,-0.0862745,-0.807843
1.604e-07,-0.117647,-0.807843
1.608e-07,-0.117647,-0.807843
1.612e-07,-0.14902,-0.776471
1.616e-07,-0.14902,-0.776471
1.62e-07,-0.14902,-0.745098
1.624e-07,-0.180392,-0.682353
1.628e-07,-0.180392,-0.65098
1.632e-07,-0.211765,-0.588235
1.636e-07,-0.211765,-0.52549
1.64e-07,-0.211765,-0.462745
1.644e-07,-0.243137,-0.368627
1.648e-07,-0.243137,-0.27451
1.652e-07,-0.243137,-0.180392
1.656e-07,-0.243137,-0.0862745
1.66e-07,-0.27451,0.00784314
1.664e-07,-0.27451,0.101961
1.668e-07,-0.27451,0.196078
1.672e-07,-0.27451,0.290196
1.676e-07,-0.27451,0.384314
1.68e-07,-0.27451,0.447059
1.684e-07,-0.27451,0.509804
1.688e-07,-0.27451,0.541176
1.692e-07,-0.27451,0.603922
1.696e-07,-0.27451,0.635294
1.7e-07,-0.243137,0.635294
1.704e-07,-0.243137,0.666667
1.708e-07,-0.211765,0.666667
1.712e-07,-0.180392,0.635294
1.716e-07,-0.14902,0.635294
1.72e-07,-0.117647,0.603922
1.724e-07,-0.117647,0.603922
1.728e-07,-0.0862745,0.572549
1.732e-07,-0.054902,0.541176
1.736e-07,-0.0235294,0.509804
1.74e-07,-0.0235294,0.478431
1.744e-07,0.00784314,0.447059
1.748e-07,0.0392157,0.415686
1.752e-07,0.0392157,0.384314
1.756e-07,0.0392157,0.352941
1.76e-07,0.0705882,0.321569
1.764e-07,0.0705882,0.290196
1.768e-07,0.0705882,0.258824
1.772e-07,0.0705882,0.227451
1.776e-07,0.0705882,0.196078
1.78e-07,0.101961,0.164706
1.784e-07,0.0705882,0.133333
1.788e-07,0.0705882,0.133333
1.792e-07,0.0705882,0.101961
1.796e-07,0.0705882,0.0705882
1.8e-07,0.0705882,0.0705882
1.804e-07,0.0392157,0.0392157
1.808e-07,0.0392157,0.0392157
1.812e-07,0.0392157,0.00784314
1.816e-07,0.00784314,0.00784314
1.82e-07,0.00784314,0.00784314
1.824e-07,-0.0235294,-0.0235294
1.828e-07,-0.0235294,-0.0235294
1.832e-07,-0.054902,-0.0235294
1.836e-07,-0.054902,-0.0235294
1.84e-07,-0.0862745,-0.0235294
1.844e-07,-0.0862745,-0.0235294
1.848e-07,-0.117647,-0.0235294
1.852e-07,-0.14902,-0.0235294
1.856e-07,-0.14902,-0.0235294
1.86e-07,-0.14902,-0.0235294
1.864e-07,-0.180392,0.00784314
1.868e-07,-0.180392,0.00784314
1.872e-07,-0.211765,0.00784314
1.876e-07,-0.211765,0.0392157
1.88e-07,-0.211765,0.0392157
1.884e-07,-0.211765,0.0392157
1.888e-07,-0.243137,0.0705882
1.892e-07,-0.243137,0.0705882
1.896e-07,-0.243137,0.101961
1.9e-07,-0.243137,0.101961
1.904e-07,-0.243137,0.101961
1.908e-07,-0.243137,0.133333
1.912e-07,-0.243137,0.133333
1.916e-07,-0.243137,0.133333
1.92e-07,-0.243137,0.164706
1.924e-07,-0.211765,0.164706
1.928e-07,-0.211765,0.164706
1.932e-07,-0.211765,0.196078
1.936e-07,-0.211765,0.196078
1.94e-07,-0.180392,0.196078
1.944e-07,-0.180392,0.196078
1.948e-07,-0.14902,0.196078
1.952e-07,-0.14902,0.196078
1.956e-07,-0.117647,0.196078
1.96e-07,-0.0862745,0.227451
1.964e-07,-0.054902,0.227451
1.968e-07,-0.054902,0.258824
1.972e-07,-0.0235294,0.290196
1.976e-07,-0.0235294,0.321569
1.98e-07,0.00784314,0.384314
1.984e-07,0.00784314,0.478431
1.988e-07,0.00784314,0.541176
1.992e-07,0.00784314,0.666667
1.996e-07,0.00784314,0.792157
2e-07,-0.0235294,0.94902
2.004e-07,-0.0235294,1.13725
2.008e-07,-0.0235294,1.32549
2.012e-07,-0.054902,1.51373
2.016e-07,-0.054902,1.70196
2.02e-07,-0.054902,1.92157
2.024e-07,-0.0862745,2.14118
2.028e-07,-0.0862745,2.36078
2.032e-07,-0.0862745,2.54902
2.036e-07,-0.0862745,2.76863
2.04e-07,-0.0862745,2.95686
2.044e-07,-0.0862745,3.1451
2.048e-07,-0.0862745,3.30196
2.052e-07,-0.0862745,3.4902
2.056e-07,-0.0862745,3.61569
2.06e-07,-0.0862745,3.77255
2.064e-07,-0.0862745,3.89804
2.068e-07,-0.0862745,4.02353
2.072e-07,-0.0862745,4.11765
2.076e-07,-0.0862745,4.21176
2.08e-07,-0.0862745,4.30588
2.084e-07,-0.0862745,4.36863
2.088e-07,-0.0862745,4.4
2.092e-07,-0.0862745,4.46275
2.096e-07,-0.0862745,4.46275
2.1e-07,-0.0862745,4.49412
2.104e-07,-0.054902,4.49412
2.108e-07,-0.054902,4.49412
2.112e-07,-0.054902,4.49412
2.116e-07,-0.0235294,4.46275
2.12e-07,-0.0235294,4.43137
2.124e-07,-0.0235294,4.4
2.128e-07,0.00784314,4.33725
2.132e-07,0.00784314,4.30588
2.136e-07,0.0392157,4.24314
2.14e-07,0.0392157,4.18039
2.144e-07,0.0392157,4.08627
2.148e-07,0.0705882,3.99216
2.152e-07,0.0705882,3.89804
2.156e-07,0.0705882,3.80392
2.16e-07,0.101961,3.7098
2.164e-07,0.101961,3.61569
2.168e-07,0.101961,3.52157
2.172e-07,0.101961,3.42745
2.176e-07,0.101961,3.36471
2.18e-07,0.101961,3.27059
2.184e-07,0.101961,3.20784
2.188e-07,0.101961,3.1451
2.192e-07,0.101961,3.11373
2.196e-07,0.101961,3.08235
2.2e-07,0.0705882,3.08235
2.204e-07,0.0705882,3.05098
2.208e-07,0.0392157,3.05098
2.212e-07,0.0392157,3.05098
2.216e-07,0.00784314,3.08235
2.22e-07,0.00784314,3.11373
2.224e-07,-0.0235294,3.11373
2.228e-07,-0.054902,3.1451
2.232e-07,-0.0862745,3.17647
2.236e-07,-0.117647,3.20784
2.24e-07,-0.117647,3.23922
2.244e-07,-0.14902,3.27059
2.248e-07,-0.14902,3.30196
2.252e-07,-0.180392,3.33333
2.256e-07,-0.180392,3.36471
2.26e-07,-0.180392,3.42745
2.264e-07,-0.211765,3.45882
2.268e-07,-0.211765,3.4902
