tex/src/python-graph/spi-osciloscope-data/k26-spi-clk-10-mhz-data-0x881-vypnuti-dvou-led-8-radek.csv

Model,RTH1004
SerialNumber,104117
Firmware Version,'1.70.3.2'

Acquisition Time Stamp,2023-04-12 16:08:14.092865387,2023-04-12 16:08:14.092865387
Waveform Type,ANALOG,
Acquisition Mode,SAMPLE,
Horizontal Unit,s,
Horizontal Scale,5e-07,
Horizontal Position,2e-06,
Reference Point,50 %,
Sample Interval,4e-09,
Record Length,1250,
Probe Setting,'10:1','10:1'
Vertical Unit,V,V
Vertical Scale,2,2
Vertical Position,-3,1
Vertical Offset,0,0
History Index,0,0
History Time Stamp,0.000000000000,0.000000000000
,,
TIME,CH1,CH3
-5e-07,-0.0862745,0.101961
-4.96e-07,-0.054902,0.101961
-4.92e-07,-0.054902,0.133333
-4.88e-07,-0.0862745,0.133333
-4.84e-07,-0.054902,0.133333
-4.8e-07,-0.054902,0.101961
-4.76e-07,-0.054902,0.101961
-4.72e-07,-0.054902,0.133333
-4.68e-07,-0.054902,0.133333
-4.64e-07,-0.054902,0.133333
-4.6e-07,-0.0862745,0.101961
-4.56e-07,-0.054902,0.101961
-4.52e-07,-0.054902,0.133333
-4.48e-07,-0.0862745,0.101961
-4.44e-07,-0.054902,0.101961
-4.4e-07,-0.054902,0.101961
-4.36e-07,-0.0862745,0.0705882
-4.32e-07,-0.0862745,0.101961
-4.28e-07,-0.054902,0.133333
-4.24e-07,-0.054902,0.133333
-4.2e-07,-0.054902,0.101961
-4.16e-07,-0.054902,0.133333
-4.12e-07,-0.0235294,0.133333
-4.08e-07,-0.0862745,0.133333
-4.04e-07,-0.0862745,0.101961
-4e-07,-0.054902,0.101961
-3.96e-07,-0.054902,0.101961
-3.92e-07,-0.0235294,0.133333
-3.88e-07,-0.054902,0.133333
-3.84e-07,-0.054902,0.133333
-3.8e-07,-0.054902,0.101961
-3.76e-07,-0.0862745,0.133333
-3.72e-07,-0.054902,0.133333
-3.68e-07,-0.054902,0.101961
-3.64e-07,-0.054902,0.133333
-3.6e-07,-0.054902,0.133333
-3.56e-07,-0.054902,0.101961
-3.52e-07,-0.054902,0.101961
-3.48e-07,-0.054902,0.101961
-3.44e-07,-0.054902,0.133333
-3.4e-07,-0.054902,0.101961
-3.36e-07,-0.054902,0.0705882
-3.32e-07,-0.054902,0.101961
-3.28e-07,-0.054902,0.101961
-3.24e-07,-0.054902,0.133333
-3.2e-07,-0.0862745,0.133333
-3.16e-07,-0.054902,0.133333
-3.12e-07,-0.054902,0.133333
-3.08e-07,-0.117647,0.101961
-3.04e-07,-0.0862745,0.133333
-3e-07,-0.054902,0.133333
-2.96e-07,-0.0862745,0.101961
-2.92e-07,-0.054902,0.133333
-2.88e-07,-0.0235294,0.101961
-2.84e-07,-0.054902,0.101961
-2.8e-07,-0.054902,0.101961
-2.76e-07,-0.054902,0.101961
-2.72e-07,-0.054902,0.101961
-2.68e-07,-0.0235294,0.101961
-2.64e-07,-0.054902,0.101961
-2.6e-07,-0.0862745,0.133333
-2.56e-07,-0.0862745,0.133333
-2.52e-07,-0.0862745,0.133333
-2.48e-07,-0.0862745,0.133333
-2.44e-07,-0.0862745,0.133333
-2.4e-07,-0.054902,0.133333
-2.36e-07,-0.054902,0.101961
-2.32e-07,-0.054902,0.101961
-2.28e-07,-0.0862745,0.101961
-2.24e-07,-0.054902,0.101961
-2.2e-07,-0.0862745,0.133333
-2.16e-07,-0.0862745,0.133333
-2.12e-07,-0.0862745,0.101961
-2.08e-07,-0.054902,0.133333
-2.04e-07,-0.054902,0.101961
-2e-07,-0.054902,0.133333
-1.96e-07,-0.054902,0.133333
-1.92e-07,-0.0862745,0.101961
-1.88e-07,-0.0862745,0.101961
-1.84e-07,-0.054902,0.133333
-1.8e-07,-0.054902,0.101961
-1.76e-07,-0.054902,0.133333
-1.72e-07,-0.0235294,0.164706
-1.68e-07,-0.054902,0.133333
-1.64e-07,-0.054902,0.133333
-1.6e-07,-0.054902,0.101961
-1.56e-07,-0.0862745,0.101961
-1.52e-07,-0.054902,0.133333
-1.48e-07,-0.054902,0.101961
-1.44e-07,-0.054902,0.133333
-1.4e-07,-0.054902,0.133333
-1.36e-07,-0.0862745,0.101961
-1.32e-07,-0.0862745,0.133333
-1.28e-07,-0.0862745,0.164706
-1.24e-07,-0.054902,0.133333
-1.2e-07,-0.054902,0.164706
-1.16e-07,-0.054902,0.133333
-1.12e-07,-0.054902,0.133333
-1.08e-07,-0.0862745,0.101961
-1.04e-07,-0.054902,0.0705882
-1e-07,-0.054902,0.101961
-9.6e-08,-0.054902,0.101961
-9.2e-08,-0.054902,0.133333
-8.8e-08,-0.054902,0.133333
-8.4e-08,-0.054902,0.133333
-8e-08,-0.0235294,0.133333
-7.6e-08,-0.054902,0.101961
-7.2e-08,-0.054902,0.101961
-6.8e-08,-0.0235294,0.133333
-6.4e-08,-0.0235294,0.133333
-6e-08,-0.054902,0.133333
-5.6e-08,-0.054902,0.133333
-5.2e-08,-0.054902,0.133333
-4.8e-08,-0.0235294,0.133333
-4.4e-08,-0.0235294,0.101961
-4e-08,-0.054902,0.101961
-3.6e-08,-0.054902,0.133333
-3.2e-08,-0.054902,0.101961
-2.8e-08,-0.054902,0.133333
-2.4e-08,-0.054902,0.133333
-2e-08,-0.054902,0.133333
-1.6e-08,-0.054902,0.133333
-1.2e-08,-0.054902,0.133333
-8e-09,-0.0235294,0.133333
-4e-09,-0.054902,0.352941
0,-0.243137,1.95294
4e-09,-0.27451,3.64706
8e-09,-0.0235294,4.18039
1.2e-08,0.164706,4.24314
1.6e-08,0.196078,3.52157
2e-08,0.101961,2.98824
2.4e-08,-0.14902,3.23922
2.8e-08,-0.305882,3.61569
3.2e-08,-0.117647,3.67843
3.6e-08,0.101961,3.55294
4e-08,0.0392157,3.52157
4.4e-08,-0.0862745,3.4902
4.8e-08,-0.0235294,2.64314
5.2e-08,0.101961,0.572549
5.6e-08,-0.054902,-0.556863
6e-08,-0.27451,-0.776471
6.4e-08,-0.243137,-0.337255
6.8e-08,-0.180392,0.509804
7.2e-08,-0.0862745,0.603922
7.6e-08,0.227451,0.101961
8e-08,0.133333,-0.117647
8.4e-08,-0.211765,-0.0862745
8.8e-08,-0.243137,0.0392157
9.2e-08,-0.0862745,0.101961
9.6e-08,0.00784314,0.352941
1e-07,-0.14902,2.01569
1.04e-07,-0.180392,3.77255
1.08e-07,0.0392157,4.4
1.12e-07,0.101961,4.30588
1.16e-07,0.0705882,3.42745
1.2e-07,0.00784314,2.89412
1.24e-07,-0.211765,3.20784
1.28e-07,-0.305882,3.67843
1.32e-07,-0.054902,3.74118
1.36e-07,0.164706,3.61569
1.4e-07,0.101961,3.55294
1.44e-07,-0.054902,3.45882
1.48e-07,-0.054902,2.54902
1.52e-07,0.133333,0.509804
1.56e-07,-0.0235294,-0.619608
1.6e-07,-0.243137,-0.807843
1.64e-07,-0.243137,-0.337255
1.68e-07,-0.211765,0.572549
1.72e-07,-0.0862745,0.666667
1.76e-07,0.164706,0.164706
1.8e-07,0.0705882,-0.14902
1.84e-07,-0.243137,-0.054902
1.88e-07,-0.27451,0.0705882
1.92e-07,-0.117647,0.101961
1.96e-07,0.00784314,0.352941
2e-07,-0.117647,1.98431
2.04e-07,-0.14902,3.7098
2.08e-07,0.0705882,4.33725
2.12e-07,0.164706,4.27451
2.16e-07,0.101961,3.42745
2.2e-07,0.0705882,2.89412
2.24e-07,-0.180392,3.17647
2.28e-07,-0.305882,3.67843
2.32e-07,-0.054902,3.77255
2.36e-07,0.164706,3.58431
2.4e-07,0.101961,3.55294
2.44e-07,-0.14902,3.45882
2.48e-07,-0.117647,2.61176
2.52e-07,0.101961,0.541176
2.56e-07,-0.054902,-0.588235
2.6e-07,-0.211765,-0.745098
2.64e-07,-0.180392,-0.27451
2.68e-07,-0.14902,0.572549
2.72e-07,-0.054902,0.635294
2.76e-07,0.196078,0.101961
2.8e-07,0.133333,-0.211765
2.84e-07,-0.211765,-0.0862745
2.88e-07,-0.27451,0.00784314
2.92e-07,-0.117647,0.0392157
2.96e-07,0.00784314,0.321569
3e-07,-0.14902,2.01569
3.04e-07,-0.180392,3.77255
3.08e-07,0.0705882,4.36863
3.12e-07,0.133333,4.30588
3.16e-07,0.101961,3.4902
3.2e-07,0.0392157,2.92549
3.24e-07,-0.180392,3.17647
3.28e-07,-0.337255,3.67843
3.32e-07,-0.054902,3.74118
3.36e-07,0.164706,3.61569
3.4e-07,0.101961,3.52157
3.44e-07,-0.054902,3.4902
3.48e-07,-0.0862745,2.58039
3.52e-07,0.101961,0.509804
3.56e-07,-0.0862745,-0.588235
3.6e-07,-0.243137,-0.776471
3.64e-07,-0.243137,-0.305882
3.68e-07,-0.180392,0.572549
3.72e-07,-0.054902,0.666667
3.76e-07,0.196078,0.101961
3.8e-07,0.101961,-0.14902
3.84e-07,-0.211765,-0.0862745
3.88e-07,-0.243137,0.0392157
3.92e-07,-0.117647,0.101961
3.96e-07,0.00784314,0.352941
4e-07,-0.117647,2.01569
4.04e-07,-0.14902,3.80392
4.08e-07,0.0705882,4.33725
4.12e-07,0.101961,4.24314
4.16e-07,0.0705882,3.42745
4.2e-07,0.0392157,2.89412
4.24e-07,-0.211765,3.20784
4.28e-07,-0.337255,3.64706
4.32e-07,-0.0862745,3.74118
4.36e-07,0.164706,3.58431
4.4e-07,0.0705882,3.52157
4.44e-07,-0.0862745,3.42745
4.48e-07,-0.0862745,2.61176
4.52e-07,0.101961,0.509804
4.56e-07,-0.054902,-0.556863
4.6e-07,-0.211765,-0.745098
4.64e-07,-0.14902,-0.211765
4.68e-07,-0.14902,0.635294
4.72e-07,-0.0862745,0.666667
4.76e-07,0.164706,0.133333
4.8e-07,0.101961,-0.180392
4.84e-07,-0.211765,-0.117647
4.88e-07,-0.27451,0.00784314
4.92e-07,-0.14902,0.0392157
4.96e-07,-0.0235294,0.290196
5e-07,-0.14902,1.95294
5.04e-07,-0.14902,3.7098
5.08e-07,0.0705882,4.30588
5.12e-07,0.164706,4.24314
5.16e-07,0.133333,3.45882
5.2e-07,0.0705882,2.92549
5.24e-07,-0.14902,3.20784
5.28e-07,-0.27451,3.7098
5.32e-07,-0.054902,3.74118
5.36e-07,0.196078,3.64706
5.4e-07,0.101961,3.58431
5.44e-07,-0.0862745,3.4902
5.48e-07,-0.117647,2.61176
5.52e-07,0.0705882,0.509804
5.56e-07,-0.117647,-0.65098
5.6e-07,-0.27451,-0.807843
5.64e-07,-0.243137,-0.337255
5.68e-07,-0.180392,0.541176
5.72e-07,-0.0235294,0.698039
5.76e-07,0.227451,0.133333
5.8e-07,0.133333,-0.14902
5.84e-07,-0.211765,-0.0862745
5.88e-07,-0.27451,-0.0235294
5.92e-07,-0.117647,0.101961
5.96e-07,0.00784314,0.321569
6e-07,-0.117647,2.01569
6.04e-07,-0.14902,3.74118
6.08e-07,0.0392157,4.33725
6.12e-07,0.101961,4.24314
6.16e-07,0.0392157,3.42745
6.2e-07,0.00784314,2.86275
6.24e-07,-0.180392,3.20784
6.28e-07,-0.337255,3.64706
6.32e-07,-0.0862745,3.74118
6.36e-07,0.133333,3.58431
6.4e-07,0.0392157,3.52157
6.44e-07,-0.117647,3.42745
6.48e-07,-0.0862745,2.58039
6.52e-07,0.101961,0.509804
6.56e-07,-0.0862745,-0.588235
6.6e-07,-0.243137,-0.776471
6.64e-07,-0.211765,-0.27451
6.68e-07,-0.211765,0.603922
6.72e-07,-0.0862745,0.635294
6.76e-07,0.196078,0.101961
6.8e-07,0.101961,-0.14902
6.84e-07,-0.243137,-0.0862745
6.88e-07,-0.27451,0.00784314
6.92e-07,-0.117647,0.00784314
6.96e-07,0.00784314,0.258824
7e-07,-0.14902,1.98431
7.04e-07,-0.14902,3.67843
7.08e-07,0.0705882,4.30588
7.12e-07,0.133333,4.27451
7.16e-07,0.101961,3.42745
7.2e-07,0.0392157,2.89412
7.24e-07,-0.211765,3.20784
7.28e-07,-0.337255,3.67843
7.32e-07,-0.054902,3.74118
7.36e-07,0.133333,3.61569
7.4e-07,0.0705882,3.58431
7.44e-07,-0.0862745,3.52157
7.48e-07,-0.117647,2.64314
7.52e-07,0.101961,0.572549
7.56e-07,-0.054902,-0.556863
7.6e-07,-0.211765,-0.776471
7.64e-07,-0.211765,-0.27451
7.68e-07,-0.180392,0.572549
7.72e-07,-0.0862745,0.666667
7.76e-07,0.164706,0.101961
7.8e-07,0.101961,-0.180392
7.84e-07,-0.211765,-0.117647
7.88e-07,-0.27451,0.00784314
7.92e-07,-0.117647,0.0392157
7.96e-07,-0.0235294,0.321569
8e-07,-0.14902,2.01569
8.04e-07,-0.180392,3.77255
8.08e-07,0.0705882,4.36863
8.12e-07,0.101961,4.24314
8.16e-07,0.101961,3.45882
8.2e-07,0.0705882,2.89412
8.24e-07,-0.14902,3.23922
8.28e-07,-0.305882,3.7098
8.32e-07,-0.0862745,3.77255
8.36e-07,0.133333,3.61569
8.4e-07,0.101961,3.55294
8.44e-07,-0.0862745,3.4902
8.48e-07,-0.0862745,2.61176
8.52e-07,0.0705882,0.509804
8.56e-07,-0.0862745,-0.588235
8.6e-07,-0.243137,-0.776471
8.64e-07,-0.211765,-0.305882
8.68e-07,-0.180392,0.572549
8.72e-07,-0.054902,0.635294
8.76e-07,0.196078,0.133333
8.8e-07,0.101961,-0.14902
8.84e-07,-0.211765,-0.0862745
8.88e-07,-0.27451,0.00784314
8.92e-07,-0.117647,0.0392157
8.96e-07,0.00784314,0.290196
9e-07,-0.14902,1.95294
9.04e-07,-0.180392,3.7098
9.08e-07,0.0705882,4.30588
9.12e-07,0.101961,4.24314
9.16e-07,0.0705882,3.39608
9.2e-07,0.0392157,2.86275
9.24e-07,-0.180392,3.20784
9.28e-07,-0.337255,3.67843
9.32e-07,-0.054902,3.74118
9.36e-07,0.164706,3.64706
9.4e-07,0.101961,3.55294
9.44e-07,-0.0862745,3.4902
9.48e-07,-0.117647,2.61176
9.52e-07,0.0392157,0.572549
9.56e-07,-0.0862745,-0.556863
9.6e-07,-0.243137,-0.745098
9.64e-07,-0.180392,-0.27451
9.68e-07,-0.14902,0.572549
9.72e-07,-0.054902,0.635294
9.76e-07,0.227451,0.101961
9.8e-07,0.133333,-0.14902
9.84e-07,-0.180392,-0.0862745
9.88e-07,-0.27451,0.0392157
9.92e-07,-0.117647,0.0392157
9.96e-07,-0.0235294,0.290196
1e-06,-0.14902,1.95294
1.004e-06,-0.14902,3.7098
1.008e-06,0.0392157,4.33725
1.012e-06,0.101961,4.24314
1.016e-06,0.0392157,3.45882
1.02e-06,0.00784314,2.92549
1.024e-06,-0.180392,3.20784
1.028e-06,-0.27451,3.67843
1.032e-06,-0.0235294,3.74118
1.036e-06,0.196078,3.58431
1.04e-06,0.101961,3.55294
1.044e-06,-0.0862745,3.52157
1.048e-06,-0.0862745,2.61176
1.052e-06,0.0705882,0.541176
1.056e-06,-0.054902,-0.588235
1.06e-06,-0.211765,-0.745098
1.064e-06,-0.211765,-0.27451
1.068e-06,-0.211765,0.572549
1.072e-06,-0.0862745,0.635294
1.076e-06,0.164706,0.0705882
1.08e-06,0.0705882,-0.180392
1.084e-06,-0.243137,-0.117647
1.088e-06,-0.305882,0.00784314
1.092e-06,-0.14902,0.0392157
1.096e-06,0.00784314,0.290196
1.1e-06,-0.14902,1.95294
1.104e-06,-0.180392,3.7098
1.108e-06,0.00784314,4.27451
1.112e-06,0.133333,4.21176
1.116e-06,0.101961,3.42745
1.12e-06,0.0705882,2.86275
1.124e-06,-0.14902,3.17647
1.128e-06,-0.27451,3.7098
1.132e-06,-0.054902,3.74118
1.136e-06,0.164706,3.61569
1.14e-06,0.0705882,3.55294
1.144e-06,-0.117647,3.52157
1.148e-06,-0.117647,2.64314
1.152e-06,0.101961,0.572549
1.156e-06,-0.054902,-0.556863
1.16e-06,-0.243137,-0.776471
1.164e-06,-0.211765,-0.305882
1.168e-06,-0.180392,0.572549
1.172e-06,-0.054902,0.635294
1.176e-06,0.227451,0.101961
1.18e-06,0.133333,-0.180392
1.184e-06,-0.180392,-0.0862745
1.188e-06,-0.243137,0.00784314
1.192e-06,-0.117647,0.00784314
1.196e-06,0.00784314,0.258824
1.2e-06,-0.0862745,1.95294
1.204e-06,-0.14902,3.7098
1.208e-06,0.0705882,4.30588
1.212e-06,0.101961,4.24314
1.216e-06,0.101961,3.45882
1.22e-06,0.0392157,2.89412
1.224e-06,-0.180392,3.20784
1.228e-06,-0.337255,3.67843
1.232e-06,-0.0862745,3.74118
1.236e-06,0.133333,3.58431
1.24e-06,0.0705882,3.55294
1.244e-06,-0.0862745,3.45882
1.248e-06,-0.117647,2.58039
1.252e-06,0.0705882,0.541176
1.256e-06,-0.0862745,-0.588235
1.26e-06,-0.243137,-0.807843
1.264e-06,-0.211765,-0.305882
1.268e-06,-0.180392,0.572549
1.272e-06,-0.0862745,0.666667
1.276e-06,0.164706,0.133333
1.28e-06,0.101961,-0.14902
1.284e-06,-0.211765,-0.0862745
1.288e-06,-0.27451,0.00784314
1.292e-06,-0.117647,0.0705882
1.296e-06,0.0392157,0.290196
1.3e-06,-0.117647,1.98431
1.304e-06,-0.117647,3.74118
1.308e-06,0.0705882,4.30588
1.312e-06,0.101961,4.24314
1.316e-06,0.101961,3.42745
1.32e-06,0.0705882,2.89412
1.324e-06,-0.14902,3.20784
1.328e-06,-0.305882,3.67843
1.332e-06,-0.054902,3.7098
1.336e-06,0.164706,3.58431
1.34e-06,0.0705882,3.55294
1.344e-06,-0.0862745,3.4902
1.348e-06,-0.0862745,2.61176
1.352e-06,0.101961,0.572549
1.356e-06,-0.0862745,-0.556863
1.36e-06,-0.243137,-0.776471
1.364e-06,-0.211765,-0.27451
1.368e-06,-0.14902,0.572549
1.372e-06,-0.0235294,0.666667
1.376e-06,0.196078,0.101961
1.38e-06,0.133333,-0.180392
1.384e-06,-0.211765,-0.117647
1.388e-06,-0.27451,-0.054902
1.392e-06,-0.0862745,0.0392157
1.396e-06,0.00784314,0.290196
1.4e-06,-0.0862745,1.95294
1.404e-06,-0.14902,3.7098
1.408e-06,0.0392157,4.30588
1.412e-06,0.133333,4.27451
1.416e-06,0.101961,3.39608
1.42e-06,0.0392157,2.89412
1.424e-06,-0.180392,3.20784
1.428e-06,-0.368627,3.67843
1.432e-06,-0.0862745,3.74118
1.436e-06,0.196078,3.61569
1.44e-06,0.0705882,3.52157
1.444e-06,-0.0862745,3.45882
1.448e-06,-0.0862745,2.58039
1.452e-06,0.101961,0.509804
1.456e-06,-0.054902,-0.556863
1.46e-06,-0.243137,-0.776471
1.464e-06,-0.211765,-0.305882
1.468e-06,-0.14902,0.572549
1.472e-06,-0.054902,0.666667
1.476e-06,0.196078,0.101961
1.48e-06,0.101961,-0.211765
1.484e-06,-0.180392,-0.117647
1.488e-06,-0.27451,-0.0235294
1.492e-06,-0.117647,0.0392157
1.496e-06,0.0392157,0.321569
1.5e-06,-0.0862745,1.95294
1.504e-06,-0.14902,3.67843
1.508e-06,0.101961,4.30588
1.512e-06,0.133333,4.27451
1.516e-06,0.0705882,3.39608
1.52e-06,0.0705882,2.86275
1.524e-06,-0.14902,3.20784
1.528e-06,-0.305882,3.67843
1.532e-06,-0.054902,3.74118
1.536e-06,0.164706,3.61569
1.54e-06,0.0705882,3.52157
1.544e-06,-0.117647,3.45882
1.548e-06,-0.117647,2.58039
1.552e-06,0.0392157,0.541176
1.556e-06,-0.0862745,-0.588235
1.56e-06,-0.27451,-0.807843
1.564e-06,-0.211765,-0.305882
1.568e-06,-0.180392,0.572549
1.572e-06,-0.054902,0.666667
1.576e-06,0.196078,0.0705882
1.58e-06,0.101961,-0.180392
1.584e-06,-0.180392,-0.0862745
1.588e-06,-0.243137,0.00784314
1.592e-06,-0.0862745,0.0392157
1.596e-06,0.00784314,0.290196
1.6e-06,-0.14902,1.98431
1.604e-06,-0.180392,3.7098
1.608e-06,0.0705882,4.33725
1.612e-06,0.133333,4.21176
1.616e-06,0.0705882,3.42745
1.62e-06,0.0392157,2.86275
1.624e-06,-0.14902,3.17647
1.628e-06,-0.27451,3.64706
1.632e-06,-0.054902,3.74118
1.636e-06,0.164706,3.61569
1.64e-06,0.133333,3.55294
1.644e-06,-0.0862745,3.45882
1.648e-06,-0.117647,2.61176
1.652e-06,0.0705882,0.572549
1.656e-06,-0.0862745,-0.588235
1.66e-06,-0.27451,-0.745098
1.664e-06,-0.243137,-0.243137
1.668e-06,-0.180392,0.572549
1.672e-06,-0.054902,0.635294
1.676e-06,0.196078,0.0705882
1.68e-06,0.133333,-0.180392
1.684e-06,-0.211765,-0.117647
1.688e-06,-0.243137,0.00784314
1.692e-06,-0.117647,0.0392157
1.696e-06,0.00784314,0.321569
1.7e-06,-0.117647,1.95294
1.704e-06,-0.180392,3.74118
1.708e-06,0.00784314,4.30588
1.712e-06,0.133333,4.27451
1.716e-06,0.0705882,3.45882
1.72e-06,0.0392157,2.86275
1.724e-06,-0.180392,3.17647
1.728e-06,-0.305882,3.67843
1.732e-06,-0.054902,3.74118
1.736e-06,0.133333,3.61569
1.74e-06,0.0705882,3.52157
1.744e-06,-0.0862745,3.4902
1.748e-06,-0.0862745,2.61176
1.752e-06,0.0392157,0.572549
1.756e-06,-0.0862745,-0.588235
1.76e-06,-0.305882,-0.807843
1.764e-06,-0.243137,-0.305882
1.768e-06,-0.180392,0.541176
1.772e-06,-0.0862745,0.635294
1.776e-06,0.196078,0.101961
1.78e-06,0.101961,-0.14902
1.784e-06,-0.211765,-0.0862745
1.788e-06,-0.27451,0.00784314
1.792e-06,-0.117647,0.00784314
1.796e-06,0.00784314,0.290196
1.8e-06,-0.14902,1.98431
1.804e-06,-0.14902,3.7098
1.808e-06,0.0705882,4.30588
1.812e-06,0.101961,4.24314
1.816e-06,0.101961,3.42745
1.82e-06,0.0392157,2.89412
1.824e-06,-0.180392,3.20784
1.828e-06,-0.305882,3.64706
1.832e-06,-0.0862745,3.74118
1.836e-06,0.133333,3.58431
1.84e-06,0.0705882,3.55294
1.844e-06,-0.0862745,3.4902
1.848e-06,-0.117647,2.64314
1.852e-06,0.101961,0.541176
1.856e-06,-0.0862745,-0.588235
1.86e-06,-0.243137,-0.776471
1.864e-06,-0.211765,-0.337255
1.868e-06,-0.211765,0.541176
1.872e-06,-0.054902,0.666667
1.876e-06,0.164706,0.101961
1.88e-06,0.101961,-0.180392
1.884e-06,-0.211765,-0.117647
1.888e-06,-0.243137,-0.0235294
1.892e-06,-0.117647,0.00784314
1.896e-06,0.00784314,0.290196
1.9e-06,-0.117647,1.95294
1.904e-06,-0.14902,3.7098
1.908e-06,0.0392157,4.30588
1.912e-06,0.101961,4.27451
1.916e-06,0.0705882,3.42745
1.92e-06,0.0392157,2.86275
1.924e-06,-0.14902,3.20784
1.928e-06,-0.305882,3.67843
1.932e-06,-0.0862745,3.74118
1.936e-06,0.164706,3.61569
1.94e-06,0.101961,3.55294
1.944e-06,-0.054902,3.52157
1.948e-06,0.478431,2.58039
1.952e-06,3.08235,0.384314
1.956e-06,3.77255,-0.745098
1.96e-06,3.83529,-0.65098
1.964e-06,3.58431,-0.0862745
1.968e-06,2.8,0.823529
1.972e-06,2.83137,0.729412
1.976e-06,3.7098,-0.117647
1.98e-06,3.61569,-0.337255
1.984e-06,3.20784,-0.0235294
1.988e-06,3.11373,0.133333
1.992e-06,3.27059,0.0705882
1.996e-06,3.33333,0.227451
2e-06,3.1451,1.8902
2.004e-06,3.11373,3.61569
2.008e-06,3.30196,4.24314
2.012e-06,3.45882,4.27451
2.016e-06,3.45882,3.52157
2.02e-06,3.42745,2.95686
2.024e-06,3.20784,3.27059
2.028e-06,3.08235,3.7098
2.032e-06,3.27059,3.74118
2.036e-06,3.4902,3.55294
2.04e-06,3.39608,3.4902
2.044e-06,3.30196,3.4902
2.048e-06,2.70588,2.70588
2.052e-06,0.352941,0.729412
2.056e-06,-0.494118,-0.462745
2.06e-06,-0.933333,-0.996078
2.064e-06,-0.619608,-0.556863
2.068e-06,0.196078,0.290196
2.072e-06,0.321569,0.572549
2.076e-06,-0.054902,0.384314
2.08e-06,-0.054902,0.0392157
2.084e-06,-0.27451,-0.14902
2.088e-06,-0.243137,-0.0862745
2.092e-06,-0.14902,0.0705882
2.096e-06,0.0705882,0.384314
2.1e-06,-0.054902,1.98431
2.104e-06,-0.0235294,3.80392
2.108e-06,0.164706,4.4
2.112e-06,0.164706,4.24314
2.116e-06,0.101961,3.30196
2.12e-06,0.0392157,2.8
2.124e-06,-0.211765,3.1451
2.128e-06,-0.368627,3.61569
2.132e-06,-0.0235294,3.7098
2.136e-06,0.196078,3.67843
2.14e-06,0.133333,3.61569
2.144e-06,-0.14902,3.4902
2.148e-06,-0.180392,2.61176
2.152e-06,0.0705882,0.572549
2.156e-06,-0.0862745,-0.556863
2.16e-06,-0.27451,-0.776471
2.164e-06,-0.243137,-0.27451
2.168e-06,-0.14902,0.603922
2.172e-06,-0.0235294,0.666667
2.176e-06,0.227451,0.0705882
2.18e-06,0.164706,-0.180392
2.184e-06,-0.14902,-0.14902
2.188e-06,-0.243137,-0.054902
2.192e-06,-0.117647,0.00784314
2.196e-06,-0.0235294,0.258824
2.2e-06,-0.117647,1.95294
2.204e-06,-0.180392,3.7098
2.208e-06,0.00784314,4.27451
2.212e-06,0.101961,4.27451
2.216e-06,0.0392157,3.4902
2.22e-06,0.0392157,2.89412
2.224e-06,-0.180392,3.23922
2.228e-06,-0.305882,3.74118
2.232e-06,-0.054902,3.77255
2.236e-06,0.164706,3.61569
2.24e-06,0.101961,3.52157
2.244e-06,-0.0862745,3.42745
2.248e-06,-0.0862745,2.54902
2.252e-06,0.0392157,0.509804
2.256e-06,-0.054902,-0.619608
2.26e-06,-0.211765,-0.807843
2.264e-06,-0.180392,-0.305882
2.268e-06,-0.180392,0.541176
2.272e-06,-0.0862745,0.635294
2.276e-06,0.164706,0.101961
2.28e-06,0.101961,-0.14902
2.284e-06,-0.243137,-0.0862745
2.288e-06,-0.27451,0.0392157
2.292e-06,-0.14902,0.0705882
